…
Predictions from the model. If adstocking is high (high thetas) consider cutting the first few rows. Adstocking values depend on previous rows.

```r
## Load new data

spend_plan[[date]] <- lubridate::as_date(spend_plan[[date]], format = "%B %d, %Y")
spend_plan %<>% dplyr::filter(!is.na(`Week Starting`))

predictions <- predict.mmmr_fit(model_fit, spend_plan)
#> Joining with `by = join_by(`Week Starting`)`

print(predictions)
#> # A tibble: 24 × 1
#>      .pred
#>      <dbl>
#>  1  78571.
#>  2 144276.
#>  3  75884.
#>  4  58326.
#>  5 136961.
#>  6 110899.
#>  7   4295.
#>  8 174750.
#>  9  93456.
#> 10  69345.
#> # ℹ 14 more rows
```
